Overview of mvdlm package • mvdlm
…
Did you get a warning about the maximum tree depth? If so, you can increase the maximum tree (max_treedepth) depth with the following

fit <- fit_dlm(time_varying = logit.s ~ CUI.apr,
        data = SalmonSurvCUI,
        chains=1,
        iter=1000,
        control = list(max_treedepth=15))

We can extract tidied versions of any of the parameters with

broom.mixed::tidy(fit$fit)

## # A tibble: 182 × 3
##    term    estimate std.error
##    <chr>      <dbl>     <dbl>
##  1 eta[1]     -3.38     0.358
##  2 eta[2]     -3.10     0.283
##  3 eta[3]     -3.50     0.309
##  4 eta[4]     -3.18     0.283
##  5 eta[5]     -3.65     0.309
##  6 eta[6]     -3.45     0.335
##  7 eta[7]     -3.99     0.257
##  8 eta[8]     -4.23     0.282
##  9 eta[9]     -4.68     0.304
## 10 eta[10]    -5.20     0.413
## # … with 172 more rows
## # ℹ Use `print(n = ...)` to see more rows
…
## 
## $b_varying
## # A tibble: 84 × 5
##    term            estimate std.error par          time
##    <chr>              <dbl>     <dbl> <chr>       <int>
##  1 b_varying[1,1]     -2.75     0.436 (Intercept)     1
##  2 b_varying[2,1]     -3.10     0.286 (Intercept)     2
##  3 b_varying[3,1]     -3.13     0.367 (Intercept)     3
##  4 b_varying[4,1]     -3.14     0.305 (Intercept)     4
##  5 b_varying[5,1]     -3.37     0.329 (Intercept)     5
##  6 b_varying[6,1]     -3.61     0.284 (Intercept)     6
##  7 b_varying[7,1]     -3.90     0.254 (Intercept)     7
##  8 b_varying[8,1]     -4.26     0.278 (Intercept)     8
##  9 b_varying[9,1]     -4.70     0.292 (Intercept)     9
## 10 b_varying[10,1]    -4.93     0.362 (Intercept)    10
## # … with 74 more rows
## # ℹ Use `print(n = ...)` to see more rows
…
